Appendice G Introduzione al linguaggio R | Data Science per psicologi
…
In questa seconda versione del (pseudo) codice R si capisce molto meglio ciò che vogliamo fare. Il data.frame me viene passato alla funzione wake_up(). La funzione wake_up() ha come argomento l’ora del giorno: time = "8:00". Una volta “svegliati” (wake up) dobbiamo scendere dal letto. Quindi l’output di wake_up() viene passato alla funzione get_out_of_bed() la quale ha come argomento side = "correct" perché vogliamo scendere dal letto dalla parte giusta. E così via.

G.7.2.2 Selezionare le colonne del data.frame con select()

Ritorniamo ora all’esempio precedente e supponiamo di volere selezionare le variabili name, vore e sleep_total dal data.frame msleep. Per fare ciò usiamo funzione select() che consente di selezionare un sottoinsieme di variabili in un dataset. Usando pipe scriviamo:

dt <- msleep %>%
  dplyr::select(name, vore, sleep_total)
dt
#> # A tibble: 83 × 3
#>    name                       vore  sleep_total
#>    <chr>                      <chr>       <dbl>
#>  1 Cheetah                    carni        12.1
#>  2 Owl monkey                 omni         17  
#>  3 Mountain beaver            herbi        14.4
#>  4 Greater short-tailed shrew omni         14.9
#>  5 Cow                        herbi         4  
#>  6 Three-toed sloth           herbi        14.4
#>  7 Northern fur seal          carni         8.7
#>  8 Vesper mouse               <NA>          7  
#>  9 Dog                        carni        10.1
#> 10 Roe deer                   herbi         3  
#> # … with 73 more rows
…
G.7.2.4 Aggiungere una colonna al data.frame con mutate()

Talvolta vogliamo creare una nuova variabile in uno stesso dataset ad
esempio sommando o dividendo due variabili, oppure calcolandone la
media. A questo scopo si usa la funzione mutate(). Per esempio, se
vogliamo esprimere i valori di sleep_total in minuti, moltiplichiamo
per 60:

dt %>%
  mutate(sleep_minutes = sleep_total * 60) %>%
  dplyr::select(sleep_total, sleep_minutes)
#> # A tibble: 83 × 2
#>    sleep_total sleep_minutes
#>          <dbl>         <dbl>
#>  1        12.1           726
#>  2        17            1020
#>  3        14.4           864
#>  4        14.9           894
#>  5         4             240
#>  6        14.4           864
#>  7         8.7           522
#>  8         7             420
#>  9        10.1           606
#> 10         3             180
#> # … with 73 more rows

G.7.2.5 Ordinare i dati con arrange()

La funzione arrange() serve a ordinare i dati in base ai valori di una
o più variabili. Per esempio, possiamo ordinare la variabile
sleep_total dal valore più alto al più basso in questo modo:

dt %>%
  arrange(desc(sleep_total))
#> # A tibble: 83 × 3
#>    name                           vore    sleep_total
#>    <chr>                          <chr>         <dbl>
#>  1 Little brown bat               insecti        19.9
#>  2 Big brown bat                  insecti        19.7
#>  3 Thick-tailed opposum           carni          19.4
#>  4 Giant armadillo                insecti        18.1
#>  5 North American Opossum         omni           18  
#>  6 Long-nosed armadillo           carni          17.4
#>  7 Owl monkey                     omni           17  
#>  8 Arctic ground squirrel         herbi          16.6
#>  9 Golden-mantled ground squirrel herbi          15.9
#> 10 Tiger                          carni          15.8
#> # … with 73 more rows
…
