…
```r
fit$summary(c("y_sim"))
#> # A tibble: 434 × 10
#>   variable   mean median    sd   mad    q5   q95  rhat ess_bulk
#>   <chr>     <dbl>  <dbl> <dbl> <dbl> <dbl> <dbl> <dbl>    <dbl>
#> 1 y_sim[1] -0.320 -1.27  121.  120.  -200.  200.  1.00   11732.
#> 2 y_sim[2] -0.232 -0.877  89.3  88.7 -147.  148.  1.00   11732.
#> 3 y_sim[3] -0.293 -1.42  115.  115.  -190.  190.  1.00   11734.
#> 4 y_sim[4] -0.247 -1.01   99.3  98.9 -164.  164.  1.00   11740.
#> 5 y_sim[5] -0.228 -0.969  92.6  92.1 -153.  153.  1.00   11734.
#> 6 y_sim[6] -0.264 -1.16  108.  107.  -178.  178.  1.00   11731.
#> 7 y_sim[7] -0.349 -1.39  139.  138.  -229.  229.  1.00   11731.
#> 8 y_sim[8] -0.301 -1.28  125.  124.  -206.  206.  1.00   11735.
#> # … with 426 more rows, and 1 more variable: ess_tail <dbl>
```
…
