…
Esaminando i risultati


```r
fit$summary()
#> # A tibble: 7 x 10
#>   variable    mean  median     sd    mad      q5     q95  rhat ess_bulk ess_tail
#>   <chr>      <dbl>   <dbl>  <dbl>  <dbl>   <dbl>   <dbl> <dbl>    <dbl>    <dbl>
#> 1 lp__     -41.1   -40.8   1.84   1.68   -44.6   -38.8    1.00    7131.    9908.
#> 2 mu[1]      1.69    1.68  0.173  0.171    1.41    1.98   1.00   21997.   10950.
#> 3 mu[2]      2.05    2.04  0.192  0.190    1.74    2.37   1.00   21206.   12287.
#> 4 mu[3]      1.52    1.52  0.119  0.119    1.32    1.72   1.00   23360.   11247.
#> 5 mu[4]      1.28    1.28  0.127  0.123    1.07    1.49   1.00   20076.   10902.
#> 6 sigma      0.476   0.472 0.0744 0.0726   0.361   0.605  1.00   13820.   11330.
#> # ... with 1 more row
```
…
