…
#### Selezionare più colonne con `select()`

Se vogliamo selezionare da `msleep` un insieme di variabili, ad esempio `name`, `vore` e `sleep_total`, possiamo usare il verbo `select()`:


```r
dt <- msleep %>%
  dplyr::select(name, vore, sleep_total)
dt
#> # A tibble: 83 × 3
#>   name                       vore  sleep_total
#>   <chr>                      <chr>       <dbl>
#> 1 Cheetah                    carni        12.1
#> 2 Owl monkey                 omni         17  
#> 3 Mountain beaver            herbi        14.4
#> 4 Greater short-tailed shrew omni         14.9
#> 5 Cow                        herbi         4  
#> 6 Three-toed sloth           herbi        14.4
#> # … with 77 more rows
```

\noindent
laddove la sequenza di istruzioni precedenti significa che abbiamo passato `msleep` alla funzione `select()` contenuta nel pacchetto `dplyr` e l'output di `select()` è stato salvato (usando l'operatore di assegnazione, `<-`) nell'oggetto `dt`. Alla funzione `select()` abbiamo passato gli argomenti `name`, `vore` e `sleep_total`. 

#### Filtrare le osservazioni (righe) con `filter()`

Il verbo `filter()` consente di selezionare da un `tibble` un sottoinsieme di righe (osservazioni). Per esempio, possiamo selezionare tutte le osservazioni nella variabile `vore` contrassegnate come `carni` (ovvero, tutti i carnivori):


```r
dt %>%
  dplyr::filter(vore == "carni")
#> # A tibble: 19 × 3
#>   name                 vore  sleep_total
#>   <chr>                <chr>       <dbl>
#> 1 Cheetah              carni        12.1
#> 2 Northern fur seal    carni         8.7
#> 3 Dog                  carni        10.1
#> 4 Long-nosed armadillo carni        17.4
#> 5 Domestic cat         carni        12.5
#> 6 Pilot whale          carni         2.7
#> # … with 13 more rows
```
…
#### Creare una nuova variabile con `mutate()`

Talvolta vogliamo creare una nuova variabile, per esempio, sommando o dividendo due variabili, oppure calcolandone la media. A questo scopo si usa il verbo `mutate()`. Per esempio, se vogliamo esprimere i valori di `sleep_total` in minuti, moltiplichiamo per 60:


```r
dt %>% 
  mutate(
    sleep_minutes = sleep_total * 60
  ) %>%
  dplyr::select(sleep_total, sleep_minutes)
#> # A tibble: 83 × 2
#>   sleep_total sleep_minutes
#>         <dbl>         <dbl>
#> 1        12.1           726
#> 2        17            1020
#> 3        14.4           864
#> 4        14.9           894
#> 5         4             240
#> 6        14.4           864
#> # … with 77 more rows
```

#### Ordinare i dati con `arrange()`

Il verbo `arrange()` ordina i dati in base ai valori di una o più variabili. Per esempio, possiamo ordinare la variabile `sleep_total` dal valore più alto al più basso in questo modo:


```r
dt %>% 
  arrange(
    desc(sleep_total)
  )
#> # A tibble: 83 × 3
#>   name                   vore    sleep_total
#>   <chr>                  <chr>         <dbl>
#> 1 Little brown bat       insecti        19.9
#> 2 Big brown bat          insecti        19.7
#> 3 Thick-tailed opposum   carni          19.4
#> 4 Giant armadillo        insecti        18.1
#> 5 North American Opossum omni           18  
#> 6 Long-nosed armadillo   carni          17.4
#> # … with 77 more rows
```
…
